Report with orders performed between hours 15 and 22:

ID: 7 -  client ID: 7 - Total price: 398 - Date and time: 2021-05-18 20-40-32
ID: 5 -  client ID: 6 - Total price: 62 - Date and time: 2021-05-18 20-40-12
ID: 3 -  client ID: 5 - Total price: 311 - Date and time: 2021-05-18 20-39-51
ID: 4 -  client ID: 6 - Total price: 152 - Date and time: 2021-05-18 20-40-05
ID: 9 -  client ID: 7 - Total price: 134 - Date and time: 2021-05-18 20-40-49
ID: 1 -  client ID: 5 - Total price: 157 - Date and time: 2021-05-18 20-39-17
ID: 6 -  client ID: 6 - Total price: 240 - Date and time: 2021-05-18 20-40-20
ID: 8 -  client ID: 7 - Total price: 15 - Date and time: 2021-05-18 20-40-35
ID: 2 -  client ID: 5 - Total price: 246 - Date and time: 2021-05-18 20-39-33
